Division,WeightClassKg,Place,Name,Team,BodyweightKg,Best3SquatKg,Best3BenchKg,Best3DeadliftKg,TotalKg,Equipment,Event,Sex,BirthDate
Boys,51.71,1,Adam Mock,Sealy,50.48,115.67,65.77,111.13,292.57,Single-ply,SBD,M,
Boys,51.71,2,Tye Warncke,East Bernard,50.03,115.67,49.9,120.2,285.76,Single-ply,SBD,M,
Boys,51.71,3,Charles Mack,Boling,47.4,102.06,65.77,92.99,260.82,Single-ply,SBD,M,
Boys,51.71,4,Bryant Adams,Altair Rice,49.03,90.72,43.09,120.2,254.01,Single-ply,SBD,M,
Boys,51.71,5,Kristopher Manning,Boling,40.64,92.99,43.09,102.06,238.14,Single-ply,SBD,M,
Boys,51.71,6,Logan Riley,Coldspring-Oakhurst,51.71,92.99,43.09,88.45,224.53,Single-ply,SBD,M,
Boys,55.79,1,Bryan Maldonado,Wallis Brazos,53.98,163.29,90.72,154.22,408.23,Single-ply,SBD,M,
Boys,55.79,2,Cayde Novosad,Sealy,52.8,142.88,79.38,142.88,365.14,Single-ply,SBD,M,
Boys,55.79,3,Cade Janecek,East Bernard,53.66,133.81,74.84,151.95,360.61,Single-ply,SBD,M,
Boys,55.79,4,Alex Henriquez,East Bernard,55.43,140.61,77.11,142.88,360.61,Single-ply,SBD,M,
Boys,55.79,5,Kiysean Sykes,Coldspring-Oakhurst,55.61,115.67,77.11,145.15,337.93,Single-ply,SBD,M,
Boys,55.79,6,Ryan Rodriguez,Boling,53.84,124.74,70.31,138.35,333.39,Single-ply,SBD,M,
Boys,55.79,7,James Arrington,Boling,51.8,122.47,81.65,127.01,331.12,Single-ply,SBD,M,
Boys,55.79,8,Rolando Robles,East Bernard,54.88,122.47,81.65,124.74,328.85,Single-ply,SBD,M,
Boys,55.79,9,Ty Darnell,Giddings,55.52,106.59,70.31,117.93,294.84,Single-ply,SBD,M,
Boys,55.79,10,Hardy Hay,Weimar,52.03,92.99,52.16,111.13,256.28,Single-ply,SBD,M,
Boys,55.79,11,Zane Brenek,Schulenburg,55.7,83.91,52.16,104.33,240.4,Single-ply,SBD,M,
Boys,59.87,1,Juan Perez #3,Sealy,58.79,158.76,86.18,176.9,421.84,Single-ply,SBD,M,
Boys,59.87,2,John Mendoza #2,Altair Rice,59.1,147.42,90.72,154.22,392.36,Single-ply,SBD,M,
Boys,59.87,3,Emanuel Covarrubias,Boling,59.19,145.15,83.91,142.88,371.95,Single-ply,SBD,M,
Boys,59.87,4,Sergio Martinez,Wallis Brazos,56.7,136.08,70.31,154.22,360.61,Single-ply,SBD,M,
Boys,59.87,5,Max Wickens,Sealy,58.33,136.08,81.65,136.08,353.8,Single-ply,SBD,M,
Boys,59.87,6,Illirian Haxhijaj,East Bernard,59.51,142.88,68.04,136.08,347,Single-ply,SBD,M,
Boys,59.87,7,Brayden Hayzelka,Wallis Brazos,59.28,133.81,79.38,129.27,342.46,Single-ply,SBD,M,
Boys,59.87,8,Alex Jimenez #4,Schulenburg,59.69,117.93,70.31,131.54,319.78,Single-ply,SBD,M,
Boys,59.87,9,Adin Beyer,Schulenburg,59.28,124.74,56.7,131.54,312.98,Single-ply,SBD,M,
Boys,59.87,10,Matthew Genzer,Boling,59.65,104.33,61.23,113.4,278.96,Single-ply,SBD,M,
Boys,67.13,1,Johnny Martinez,East Bernard,65.18,210.92,122.47,195.04,528.44,Single-ply,SBD,M,
Boys,67.13,2,Jeremiah Metzgar,Sealy,64.36,188.24,129.27,208.65,526.17,Single-ply,SBD,M,
Boys,67.13,3,Jaxson Jaeger,Giddings,66.32,170.1,117.93,183.7,471.74,Single-ply,SBD,M,
Boys,67.13,4,Alerique Medrano,Boling,64.41,185.97,97.52,185.97,469.47,Single-ply,SBD,M,
Boys,67.13,5,Jacob Marshall,Giddings,67,174.63,120.2,165.56,460.4,Single-ply,SBD,M,
Boys,67.13,6,Bradley Garbs,Sealy,65,163.29,104.33,188.24,455.86,Single-ply,SBD,M,
Boys,67.13,7,Jorge Olvera,Schulenburg,66.95,156.49,95.25,190.51,442.25,Single-ply,SBD,M,
Boys,67.13,8,Trintin Hyden,Hempstead,67.13,149.69,122.47,163.29,435.45,Single-ply,SBD,M,
Boys,67.13,9,Kejun Wilson,Altair Rice,64.05,174.63,83.91,172.37,430.91,Single-ply,SBD,M,
Boys,67.13,10,Clay Kohleffel,Columbus,66.36,158.76,102.06,158.76,419.57,Single-ply,SBD,M,
Boys,67.13,11,Jhon Davis,Schulenburg,65.27,149.69,88.45,149.69,387.82,Single-ply,SBD,M,
Boys,67.13,12,Jessee Norwood,Needville,60.42,147.42,97.52,136.08,381.02,Single-ply,SBD,M,
Boys,67.13,13,Dakota Ford,Weimar,61.05,131.54,83.91,165.56,381.02,Single-ply,SBD,M,
Boys,67.13,14,Payton Pavlicek,Columbus,65.77,147.42,90.72,142.88,381.02,Single-ply,SBD,M,
Boys,67.13,15,Austin Rash,Needville,65.82,147.42,83.91,147.42,378.75,Single-ply,SBD,M,
Boys,67.13,16,Landon Williams #3,Hempstead,67.13,136.08,68.04,170.1,374.21,Single-ply,SBD,M,
Boys,67.13,17,Rylee Davis #2,Brenham,60.92,131.54,86.18,142.88,360.61,Single-ply,SBD,M,
Boys,67.13,18,Fernando Reyes,Brookshire Royal,66.72,111.13,86.18,156.49,353.8,Single-ply,SBD,M,
Boys,67.13,19,Christopher Prado,Wallis Brazos,62.41,122.47,72.57,151.95,347,Single-ply,SBD,M,
Boys,67.13,20,Barrett Brock,Schulenburg,60.78,99.79,54.43,117.93,272.16,Single-ply,SBD,M,
Boys,67.13,21,John Johnson,Hempstead,66.5,83.91,61.23,113.4,258.55,Single-ply,SBD,M,
Boys,67.13,22,Matthew Jolley,Coldspring-Oakhurst,65.41,68.04,52.16,115.67,235.87,Single-ply,SBD,M,
Boys,67.13,DQ,Kaleb Rivera,East Bernard,63.78,,,,,Single-ply,SBD,M,
Boys,74.84,1,Joseph Townsend,Wallis Brazos,71.4,251.74,129.27,247.21,628.23,Single-ply,SBD,M,
Boys,74.84,2,Mike Gonzalez,Brenham,73.84,222.26,117.93,219.99,560.19,Single-ply,SBD,M,
Boys,74.84,3,Jesse Reip,Columbus,68.95,213.19,136.08,208.65,557.92,Single-ply,SBD,M,
Boys,74.84,4,Trent Mendez,Schulenburg,71.71,201.85,138.35,206.38,546.58,Single-ply,SBD,M,
Boys,74.84,5,Juan Carlos Hernandez,Altair Rice,71.03,163.29,124.74,213.19,501.22,Single-ply,SBD,M,
Boys,74.84,6,Joseph Medrano,Brenham,70.22,174.63,124.74,192.78,492.15,Single-ply,SBD,M,
Boys,74.84,7,Roberto Casas,Sealy,71.26,185.97,104.33,195.04,485.34,Single-ply,SBD,M,
Boys,74.84,8,Manuel Hernandez,Needville,70.85,170.1,92.99,210.92,474,Single-ply,SBD,M,
Boys,74.84,9,Jackson Morrow,East Bernard,72.98,185.97,95.25,190.51,471.74,Single-ply,SBD,M,
Boys,74.84,10,Jacob Vacek,Schulenburg,72.48,149.69,95.25,190.51,435.45,Single-ply,SBD,M,
Boys,74.84,11,Bryce Stoever,Schulenburg,72.71,161.03,90.72,183.7,435.45,Single-ply,SBD,M,
Boys,74.84,12,Waylon Schimcek,Weimar,70.94,154.22,102.06,172.37,428.64,Single-ply,SBD,M,
Boys,74.84,13,Jyier Jones,La Marque,71.49,154.22,104.33,170.1,428.64,Single-ply,SBD,M,
Boys,74.84,14,Ian Stelter,Brenham,72.98,158.76,92.99,156.49,408.23,Single-ply,SBD,M,
Boys,74.84,15,Rafael Herrera,Altair Rice,74.57,147.42,83.91,170.1,401.43,Single-ply,SBD,M,
Boys,74.84,16,Gauge McCain,Wallis Brazos,74.07,147.42,81.65,165.56,394.63,Single-ply,SBD,M,
Boys,74.84,17,Jonathan Taylor,Hempstead,73.35,127.01,92.99,163.29,383.29,Single-ply,SBD,M,
Boys,74.84,18,Zane Zbranek,Altair Rice,68.58,142.88,81.65,156.49,381.02,Single-ply,SBD,M,
Boys,74.84,19,Arthur Vasquez,Brookshire Royal,70.22,136.08,77.11,154.22,367.41,Single-ply,SBD,M,
Boys,74.84,20,Devin Bradley,Schulenburg,74.39,136.08,74.84,156.49,367.41,Single-ply,SBD,M,
Boys,74.84,21,Jaylon Bradford,Coldspring-Oakhurst,70.13,115.67,97.52,151.95,365.14,Single-ply,SBD,M,
Boys,74.84,22,Colton Bailey,Coldspring-Oakhurst,70.72,136.08,88.45,136.08,360.61,Single-ply,SBD,M,
Boys,74.84,23,Adam Thompson,Schulenburg,73.35,147.42,63.5,145.15,356.07,Single-ply,SBD,M,
Boys,74.84,24,Colby McCarthy,Columbus,68.13,133.81,79.38,140.61,353.8,Single-ply,SBD,M,
Boys,74.84,25,Percy Bonner,Hempstead,71.71,102.06,79.38,113.4,294.84,Single-ply,SBD,M,
Boys,74.84,26,Devin Richards,Brookshire Royal,70.44,88.45,65.77,102.06,256.28,Single-ply,SBD,M,
Boys,74.84,DQ,Joan Nava,Hempstead,73.44,,,,,Single-ply,SBD,M,
Boys,74.84,DQ,Haven Pennington,Hempstead,74.57,124.74,,,,Single-ply,SBD,M,
Boys,82.1,1,Hector Granados #2,Giddings,79.97,247.21,151.95,210.92,610.08,Single-ply,SBD,M,
Boys,82.1,2,Ruben Najera,Brenham,81.1,226.8,124.74,235.87,587.4,Single-ply,SBD,M,
Boys,82.1,3,Dj Losak,East Bernard,80.01,217.72,142.88,197.31,557.92,Single-ply,SBD,M,
Boys,82.1,4,Kai Janice,La Marque,79.47,213.19,140.61,185.97,539.77,Single-ply,SBD,M,
Boys,82.1,5,Michael Flores #8,Altair Rice,81.92,190.51,124.74,219.99,535.24,Single-ply,SBD,M,
Boys,82.1,6,Orlando Adame,Schulenburg,78.15,195.04,108.86,204.12,508.02,Single-ply,SBD,M,
Boys,82.1,7,Dyren Johnson,Altair Rice,80.83,167.83,95.25,170.1,433.18,Single-ply,SBD,M,
Boys,82.1,8,Garrett Willever,Hempstead,80.38,158.76,104.33,165.56,428.64,Single-ply,SBD,M,
Boys,82.1,9,Scott Lane Jr,Coldspring-Oakhurst,80.42,147.42,113.4,167.83,428.64,Single-ply,SBD,M,
Boys,82.1,10,Austin Stech,Weimar,78.29,161.03,86.18,174.63,421.84,Single-ply,SBD,M,
Boys,82.1,11,Buck Bujnoch,Weimar,81.65,156.49,81.65,156.49,394.63,Single-ply,SBD,M,
Boys,82.1,12,Anthony Villanueva,Brookshire Royal,81.47,136.08,70.31,142.88,349.27,Single-ply,SBD,M,
Boys,82.1,13,Luis Dominguez,Brookshire Royal,78.11,56.7,52.16,83.91,192.78,Single-ply,SBD,M,
Boys,82.1,DQ,John Rigsby,Brenham,77.84,208.65,124.74,,,Single-ply,SBD,M,
Boys,82.1,DQ,Camron Alamilla,Hallettsville,80.78,,,,,Single-ply,SBD,M,
Boys,82.1,DQ,Jaireon Simmons,Needville,80.33,149.69,129.27,,,Single-ply,SBD,M,
Boys,89.81,1,J Galvan,East Bernard,82.78,272.16,170.1,244.94,687.19,Single-ply,SBD,M,
Boys,89.81,2,Jesse Arrington,Boling,87.27,254.01,133.81,240.4,628.23,Single-ply,SBD,M,
Boys,89.81,3,Korbyn Hudgins,East Bernard,89.13,226.8,142.88,204.12,573.79,Single-ply,SBD,M,
Boys,89.81,4,Matthew Torres,Needville,87.95,242.67,129.27,195.04,566.99,Single-ply,SBD,M,
Boys,89.81,5,Lance Heimann,East Bernard,87.59,215.46,136.08,213.19,564.72,Single-ply,SBD,M,
Boys,89.81,6,Preston Lee,Boling,88.31,204.12,122.47,238.14,564.72,Single-ply,SBD,M,
Boys,89.81,7,Gabriel Lopez #3,Hempstead,87.32,192.78,129.27,170.1,492.15,Single-ply,SBD,M,
Boys,89.81,8,Hayden Minks,Wallis Brazos,89.4,163.29,108.86,192.78,464.93,Single-ply,SBD,M,
Boys,89.81,9,Edwin Almaguer,Hempstead,89.18,156.49,111.13,181.44,449.06,Single-ply,SBD,M,
Boys,89.81,10,Conner Appelt,Brenham,87.04,174.63,108.86,149.69,433.18,Single-ply,SBD,M,
Boys,89.81,11,Jakob Davis,Brenham,83.1,158.76,95.25,174.63,428.64,Single-ply,SBD,M,
Boys,89.81,12,Dayton Prado,Wallis Brazos,82.33,145.15,97.52,149.69,392.36,Single-ply,SBD,M,
Boys,89.81,13,Joshua Murphy,Needville,86.18,149.69,86.18,136.08,371.95,Single-ply,SBD,M,
Boys,89.81,14,Brady Copley,Hallettsville,84.1,145.15,81.65,142.88,369.68,Single-ply,SBD,M,
Boys,89.81,15,Ruston Krenek,Altair Rice,84.46,124.74,74.84,142.88,342.46,Single-ply,SBD,M,
Boys,89.81,DQ,Elijia Hurt,La Marque,87.23,111.13,,,,Single-ply,SBD,M,
Boys,99.79,1,Kasey Zientek,Wallis Brazos,97.3,267.62,154.22,233.6,655.44,Single-ply,SBD,M,
Boys,99.79,2,Hunter Brewster,Needville,92.53,244.94,154.22,233.6,632.76,Single-ply,SBD,M,
Boys,99.79,3,Ricky Lewis,Coldspring-Oakhurst,99.29,226.8,136.08,226.8,589.67,Single-ply,SBD,M,
Boys,99.79,4,Josh Ramirez,Schulenburg,92.99,226.8,131.54,226.8,585.13,Single-ply,SBD,M,
Boys,99.79,5,Morgan Machac,Altair Rice,96.71,219.99,142.88,183.7,546.58,Single-ply,SBD,M,
Boys,99.79,6,Joey Brown,Coldspring-Oakhurst,97.2,233.6,127.01,179.17,539.77,Single-ply,SBD,M,
Boys,99.79,7,Marco Hernandez,Needville,93.71,199.58,108.86,201.85,510.29,Single-ply,SBD,M,
Boys,99.79,8,Seth Wherry,Wallis Brazos,94.03,192.78,124.74,192.78,510.29,Single-ply,SBD,M,
Boys,99.79,9,Jose Arriaga,Sealy,97.93,208.65,99.79,185.97,494.42,Single-ply,SBD,M,
Boys,99.79,10,Allec Mizera,Hallettsville,90.99,204.12,102.06,181.44,487.61,Single-ply,SBD,M,
Boys,99.79,11,Jacob Muniz,Needville,90.54,183.7,108.86,183.7,476.27,Single-ply,SBD,M,
Boys,99.79,12,Lyndon Chambers,Columbus,91.08,183.7,111.13,170.1,464.93,Single-ply,SBD,M,
Boys,99.79,13,Preston Ramsey,Hallettsville,90.99,145.15,77.11,149.69,371.95,Single-ply,SBD,M,
Boys,99.79,14,Jesus Arciga,Brookshire Royal,95.89,124.74,77.11,161.03,362.87,Single-ply,SBD,M,
Boys,99.79,15,Zachary Hand,Brookshire Royal,97.66,111.13,70.31,124.74,306.17,Single-ply,SBD,M,
Boys,99.79,DQ,Mark Glover,Altair Rice,90.72,235.87,142.88,,,Single-ply,SBD,M,
Boys,109.77,1,Yahir Alvarez,Sealy,104.01,231.33,149.69,226.8,607.81,Single-ply,SBD,M,
Boys,109.77,2,Austin Cummins,Columbus,107.77,229.06,154.22,215.46,598.74,Single-ply,SBD,M,
Boys,109.77,3,Hunter Mangum,Columbus,107.59,229.06,129.27,219.99,578.33,Single-ply,SBD,M,
Boys,109.77,4,Oscar Ramirez,Columbus,104.01,229.06,129.27,213.19,571.53,Single-ply,SBD,M,
Boys,109.77,5,Jose Galan,Giddings,104.69,195.04,122.47,192.78,510.29,Single-ply,SBD,M,
Boys,109.77,6,Sean Sims,Altair Rice,100.06,192.78,129.27,176.9,498.95,Single-ply,SBD,M,
Boys,109.77,7,Marshall Welborn,Schulenburg,107.27,158.76,99.79,181.44,439.98,Single-ply,SBD,M,
Boys,109.77,DQ,Cedric McGowen,Coldspring-Oakhurst,109,129.27,97.52,,,Single-ply,SBD,M,
Boys,124.74,1,Jesse Huddleston,Boling,121.02,272.16,124.74,226.8,623.69,Single-ply,SBD,M,
Boys,124.74,2,Miguel Rodriguez,Brenham,112.49,226.8,158.76,226.8,612.35,Single-ply,SBD,M,
Boys,124.74,3,Sam Hermes,Hallettsville,110.77,244.94,136.08,219.99,601.01,Single-ply,SBD,M,
Boys,124.74,4,Isaiah Adams,Schulenburg,122.56,208.65,127.01,226.8,562.45,Single-ply,SBD,M,
Boys,124.74,5,Kade LaSagna,Brenham,120.97,206.38,136.08,215.46,557.92,Single-ply,SBD,M,
Boys,124.74,6,Michael Lara,Giddings,114.62,219.99,133.81,199.58,553.38,Single-ply,SBD,M,
Boys,124.74,7,Ethan Luna,Altair Rice,115.53,219.99,136.08,190.51,546.58,Single-ply,SBD,M,
Boys,124.74,8,Emanuel Gaytan,Weimar,114.53,213.19,95.25,192.78,501.22,Single-ply,SBD,M,
Boys,124.74,9,Randy Greenwood,La Marque,117.48,197.31,113.4,183.7,494.42,Single-ply,SBD,M,
Boys,124.74,10,Jeremiah Stance,La Marque,112.58,183.7,124.74,170.1,478.54,Single-ply,SBD,M,
Boys,124.74,11,Daniel Barrera,Sealy,121.15,181.44,111.13,165.56,458.13,Single-ply,SBD,M,
Boys,124.74,12,James Oviedo,Brookshire Royal,118.57,138.35,97.52,195.04,430.91,Single-ply,SBD,M,
Boys,139.71,1,Landon Henke,Needville,129.55,340.19,215.46,297.1,852.75,Single-ply,SBD,M,
Boys,139.71,2,Jasiah Sampleton,Giddings,139.21,362.87,217.72,272.16,852.75,Single-ply,SBD,M,
Boys,139.71,3,Seth Bear,Boling,132.77,274.42,151.95,226.8,653.17,Single-ply,SBD,M,
Boys,139.71,4,Kevin Ramirez #5,Giddings,133.13,224.53,142.88,190.51,557.92,Single-ply,SBD,M,
Boys,139.71,5,Ignacio Hernandez,Schulenburg,136.4,204.12,111.13,204.12,519.36,Single-ply,SBD,M,
Boys,139.71,6,Calvin Thompson,Schulenburg,135.08,172.37,102.06,154.22,428.64,Single-ply,SBD,M,
Boys,,NS,Rogerick Walton,Schulenburg,,,,,,Single-ply,SBD,M,
Boys,,NS,Thomas Olivier,La Marque,,,,,,Single-ply,SBD,M,
Boys,,NS,Maxwell Sanja,La Marque,,,,,,Single-ply,SBD,M,
Boys,,NS,Jusiah Sampleton,Giddings,,,,,,Single-ply,SBD,M,
Boys,,NS,Stevie Ray,Giddings,,,,,,Single-ply,SBD,M,
Boys,,NS,Damion Labron,Giddings,,,,,,Single-ply,SBD,M,
Boys,,NS,Cameron Davis #1,Bloomington,,,,,,Single-ply,SBD,M,
Boys,,NS,Michael Havranek,Bloomington,,,,,,Single-ply,SBD,M,
Boys,,NS,Bryan Tinajero,Bloomington,,,,,,Single-ply,SBD,M,
Boys,,NS,Ryan O'Neal,Boling,,,,,,Single-ply,SBD,M,
Boys,,NS,Damian Garcia,Coldspring-Oakhurst,,,,,,Single-ply,SBD,M,
Boys,,NS,Malachi Piles,Coldspring-Oakhurst,,,,,,Single-ply,SBD,M,
Boys,,NS,Hayden Richardson,Coldspring-Oakhurst,,,,,,Single-ply,SBD,M,
Boys,,NS,Cody Garnett,Coldspring-Oakhurst,,,,,,Single-ply,SBD,M,
Boys,,NS,Matthew Irving,Coldspring-Oakhurst,,,,,,Single-ply,SBD,M,
Boys,,NS,Jack King,Coldspring-Oakhurst,,,,,,Single-ply,SBD,M,
Boys,,NS,Ivan Butler,Coldspring-Oakhurst,,,,,,Single-ply,SBD,M,
Boys,,NS,Tate Stamper,Coldspring-Oakhurst,,,,,,Single-ply,SBD,M,
Boys,,NS,Joshua Mitschke,Giddings,,,,,,Single-ply,SBD,M,
Boys,,NS,Stephen Christoph,Columbus,,,,,,Single-ply,SBD,M,
Boys,,NS,Tracee Steptoe,Hempstead,,,,,,Single-ply,SBD,M,
Boys,,NS,Drayton Mazac,Sealy,,,,,,Single-ply,SBD,M,
Boys,,NS,Samuel Mieth,Wallis Brazos,,,,,,Single-ply,SBD,M,
Boys,,NS,Ethan Hart,Sealy,,,,,,Single-ply,SBD,M,
Boys,,NS,Anthony Sierra,Weimar,,,,,,Single-ply,SBD,M,
Boys,,NS,Ethan Stech,Weimar,,,,,,Single-ply,SBD,M,
